{
    "page": 1,
    "total_results": 19772,
    "total_pages": 989,
    "results": [
      {
        "vote_count": 6503,
        "id": 299536,
        "video": false,
        "vote_average": 8.3,
        "title": "Avengers: Infinity War",
        "popularity": 350.154,
        "poster_path": "\/7WsyChQLEftFiDOVTGkv3hFpyyt.jpg",
        "original_language": "en",
        "original_title": "Avengers: Infinity War",
        "genre_ids": [
          12,
          878,
          14,
          28
        ],
        "backdrop_path": "\/bOGkgRGdhrBYJSLpXaxhXVstddV.jpg",
        "adult": false,
        "overview": "As the Avengers and their allies have continued to protect the world from threats too large for any one hero to handle, a new danger has emerged from the cosmic shadows: Thanos. A despot of intergalactic infamy, his goal is to collect all six Infinity Stones, artifacts of unimaginable power, and use them to inflict his twisted will on all of reality. Everything the Avengers have fought for has led up to this moment - the fate of Earth and existence itself has never been more uncertain.",
        "release_date": "2018-04-25"
      },
      {
        "vote_count": 6504,
        "id": 299537,
        "video": false,
        "vote_average": 8.3,
        "title": "Hulk: Hulk War",
        "popularity": 350.154,
        "poster_path": "\/7WsyChQLEftFiDOVTGkv3hFpyyt.jpg",
        "original_language": "en",
        "original_title": "Hulk: Hulk War",
        "genre_ids": [
          13,
          889,
          16,
          30
        ],
        "backdrop_path": "\/bOGkgRGdhrBYJSLpXaxhXVstddV.jpg",
        "adult": false,
        "overview": "As the Avengers and their allies have continued to protect the world from threats too large for any one hero to handle, a new danger has emerged from the cosmic shadows: Thanos. A despot of intergalactic infamy, his goal is to collect all six Infinity Stones, artifacts of unimaginable power, and use them to inflict his twisted will on all of reality. Everything the Avengers have fought for has led up to this moment - the fate of Earth and existence itself has never been more uncertain.",
        "release_date": "2019-04-25"
      }
    ]
}